{
  "show_tray_icon": true,
  "tts_enabled": false,
  "allow_network_access": false,
  "profile_directory": "/home/fbsb/.local/share/goxlr-utility/profiles",
  "mic_profile_directory": "/home/fbsb/.local/share/goxlr-utility/mic-profiles",
  "samples_directory": "/home/fbsb/.local/share/goxlr-utility/samples",
  "presets_directory": "/home/fbsb/.local/share/goxlr-utility/presets",
  "icons_directory": "/home/fbsb/.local/share/goxlr-utility/icons",
  "logs_directory": "/home/fbsb/.local/share/goxlr-utility/logs",
  "log_level": "Error",
  "open_ui_on_launch": false,
  "activate": null,
  "devices": {
    "S210607760DI7": {
      "profile": "Default",
      "mic_profile": "T-Bone MB 7 Beta",
      "hold_delay": 500,
      "sampler_pre_buffer": null,
      "chat_mute_mutes_mic_to_chat": true,
      "lock_faders": false,
      "enable_monitor_with_fx": false,
      "shutdown_commands": [],
      "sleep_commands": [],
      "wake_commands": [
        {
          "ReloadSettings": []
        }
      ]
    }
  },
  "sample_gain": null
}